<?xml version="1.0" encoding="utf-8"?>
<!-- Generator: Adobe Illustrator 25.4.1, SVG Export Plug-In . SVG Version: 6.00 Build 0)  -->
<svg version="1.1" id="Calque_1" xmlns="http://www.w3.org/2000/svg" xmlns:xlink="http://www.w3.org/1999/xlink" x="0px" y="0px"
	 viewBox="0 0 11.2 11.6" style="enable-background:new 0 0 11.2 11.6;" xml:space="preserve">
<style type="text/css">
	.st0{fill:#BD1A24;}
	.st1{fill:#54514D;}
	.st2{fill:#FFCF00;}
	.st3{fill:#FFE066;}
	.st4{enable-background:new    ;}
	.st5{fill:#071A39;}
	.st6{fill:none;stroke:#FFFFFF;stroke-width:1.5;stroke-linecap:round;}
</style>
<g class="st4">
	<path class="st5" d="M4.4,11.6V6.9H0V4.8h4.4V0h2.4v4.8h4.4v2.1H6.8v4.8H4.4z"/>
</g>
</svg>
