<svg xmlns="http://www.w3.org/2000/svg" viewBox="-28.168 0.928 9.5 12.469">
 <path fill="rgba(84,81,77,1)" d="M -19.85547256469727 5.084263801574707 L -20.44922637939453 5.084263801574707 L -20.44922637939453 3.896759748458862 C -20.44922637939453 2.258004426956177 -21.77923011779785 0.9279999732971191 -23.41798400878906 0.9279999732971191 C -25.05673980712891 0.9279999732971191 -26.38674545288086 2.258004426956177 -26.38674545288086 3.896759748458862 L -26.38674545288086 5.084263801574707 L -26.98049545288086 5.084263801574707 C -27.63362312316895 5.084263801574707 -28.16800117492676 5.618640899658203 -28.16800117492676 6.271767616271973 L -28.16800117492676 12.2092866897583 C -28.16800117492676 12.86241436004639 -27.63362312316895 13.39679050445557 -26.98049545288086 13.39679050445557 L -19.85547256469727 13.39679050445557 C -19.20234680175781 13.39679050445557 -18.66796875 12.86241436004639 -18.66796875 12.2092866897583 L -18.66796875 6.271767616271973 C -18.66796875 5.618640899658203 -19.20234680175781 5.084263801574707 -19.85547256469727 5.084263801574707 Z M -25.25861549377441 3.896759748458862 C -25.25861549377441 2.881443977355957 -24.43330001831055 2.056128740310669 -23.41798400878906 2.056128740310669 C -22.40266799926758 2.056128740310669 -21.57735443115234 2.881443977355957 -21.57735443115234 3.896759748458862 L -21.57735443115234 5.084263801574707 L -25.25861549377441 5.084263801574707 L -25.25861549377441 3.896759748458862 Z">
    </path>
</svg>