<?xml version="1.0" encoding="utf-8"?>
<!-- Generator: Adobe Illustrator 25.4.1, SVG Export Plug-In . SVG Version: 6.00 Build 0)  -->
<svg version="1.1" id="Calque_1" xmlns="http://www.w3.org/2000/svg" xmlns:xlink="http://www.w3.org/1999/xlink" x="0px" y="0px"
	 viewBox="0 0 10.9 13.1" style="enable-background:new 0 0 10.9 13.1;" xml:space="preserve">
<style type="text/css">
	.st0{fill:#BD1A24;}
	.st1{fill:#54514D;}
	.st2{fill:#FFCF00;}
	.st3{fill:#FFE066;}
	.st4{enable-background:new    ;}
	.st5{fill:#071A39;}
	.st6{fill:none;stroke:#FFFFFF;stroke-width:1.5;stroke-linecap:round;}
</style>
<g id="Groupe_454" transform="translate(2937.385 -4133.833)">
	<path id="Tracé_123" class="st1" d="M-2930.2,4133.9l3.6,4.3c-0.2,0-0.3,0-0.4,0c-1,0-2,0-3,0c-0.1,0-0.2,0-0.2-0.2
		c0-1.3,0-2.7,0-4C-2930.2,4134-2930.2,4134-2930.2,4133.9z"/>
	<path id="Tracé_124" class="st1" d="M-2930.9,4133.8h-5.9c-0.3,0-0.6,0.2-0.6,0.6v12c0,0.3,0.2,0.6,0.6,0.6h9.8
		c0.3,0,0.6-0.2,0.6-0.6v-7.5h-4.5L-2930.9,4133.8z"/>
</g>
</svg>
