<?xml version="1.0" encoding="utf-8"?>
<!-- Generator: Adobe Illustrator 25.4.1, SVG Export Plug-In . SVG Version: 6.00 Build 0)  -->
<svg version="1.1" id="Calque_1" xmlns="http://www.w3.org/2000/svg" xmlns:xlink="http://www.w3.org/1999/xlink" x="0px" y="0px"
	 viewBox="0 0 17 17" style="enable-background:new 0 0 17 17;" xml:space="preserve">
<style type="text/css">
	.st0{fill:#BD1A24;}
	.st1{fill:#54514D;}
	.st2{fill:#FFCF00;}
	.st3{fill:#071A39;}
	.st4{font-family:'IBMPlexSans-Bold';}
	.st5{font-size:10px;}
	.st6{fill:#FFE066;}
	.st7{enable-background:new    ;}
	.st8{fill:none;stroke:#FFFFFF;stroke-width:1.5;stroke-linecap:round;}
</style>
<g id="Composant_52_49" transform="translate(151 43.921)">
	<path id="Tracé_111" class="st2" d="M-142.5-43.9c4.7,0,8.5,3.8,8.5,8.5s-3.8,8.5-8.5,8.5s-8.5-3.8-8.5-8.5
		S-147.2-43.9-142.5-43.9z"/>
	<text transform="matrix(1 0 0 1 -144 -31.921)" class="st3 st4 st5">i</text>
</g>
</svg>
