<svg width="167.785" height="25" xmlns="http://www.w3.org/2000/svg">

 <g>
  <title>Layer 1</title>
  <path id="svg_1" fill="#4b3c3c" d="m165.324,10.179l0.392,0c0.364,0 0.447,0.14 0.447,0.755c0,0.643 -0.112,0.755 -0.447,0.755l-0.392,0l0,-1.51zm0,5.984l0,-3.132l0.392,0c0.308,0 0.475,0.112 0.475,0.364l0,2.489a0.729,0.729 0 0 0 0.084,0.308l1.51,0c-0.112,-0.112 -0.112,-0.224 -0.112,-0.783l0,-1.594c0,-0.923 -0.28,-1.342 -0.895,-1.426a1.041,1.041 0 0 0 0.867,-1.119l0,-0.923c0,-1.174 -0.587,-1.482 -1.9,-1.482l-1.9,0l0,7.3l1.479,-0.002zm-2.852,-7.3l-1.482,0l0,7.3l1.482,0l0,-7.3zm-4.279,5.145l-1.286,-5.145l-1.9,0l0,7.3l1.4,0l0,-5.089l1.314,5.089l1.874,0l0,-7.3l-1.4,0l-0.002,5.145zm-7.411,2.153l3.076,0l0,-1.336l-1.566,0l0,-1.818l1.51,0l0,-1.314l-1.51,0l0,-1.482l1.566,0l0,-1.314l-3.076,0l0,7.264zm-2.461,-7.3l-0.7,5.649l-0.7,-5.649l-1.538,0l1.23,7.3l1.985,0l1.23,-7.3l-1.507,0zm-5.089,1.23l0.336,3.44l-0.727,0l0.391,-3.44zm-0.7,6.068l0.14,-1.286l1.035,0l0.168,1.286l1.538,0l-1.23,-7.3l-1.985,0l-1.23,7.3l1.564,0zm-3.607,-7.3l0,1.314l0.5,0l-0.615,1.314l0.755,0l0.7,-1.314l0,-1.308l-1.34,-0.006zm0.7,7.3l0,-1.334l-1.567,0l0,-5.96l-1.482,0l0,7.3l3.049,-0.006zm-8.473,-5.984l0.391,0c0.364,0 0.447,0.14 0.447,0.755c0,0.643 -0.112,0.755 -0.447,0.755l-0.391,0l0,-1.51zm0,5.984l0,-3.132l0.391,0c0.308,0 0.475,0.112 0.475,0.364l0,2.489a0.73,0.73 0 0 0 0.084,0.308l1.51,0c-0.112,-0.112 -0.112,-0.224 -0.112,-0.783l0,-1.59c0,-0.923 -0.28,-1.342 -0.895,-1.426a1.041,1.041 0 0 0 0.867,-1.119l0,-0.923c0,-1.174 -0.587,-1.482 -1.9,-1.482l-1.9,0l0,7.3l1.48,-0.006zm-2.88,-7.3l-1.482,0l0,7.3l1.482,0l0,-7.3zm-3.971,0l-0.7,5.649l-0.7,-5.649l-1.538,0l1.23,7.3l1.985,0l1.23,-7.3l-1.507,0zm-5.817,1.314l0.392,0c0.364,0 0.447,0.14 0.447,0.755c0,0.643 -0.112,0.755 -0.447,0.755l-0.392,0l0,-1.51zm0,5.984l0,-3.132l0.392,0c0.308,0 0.475,0.112 0.475,0.364l0,2.489a0.73,0.73 0 0 0 0.084,0.308l1.51,0c-0.112,-0.112 -0.112,-0.224 -0.112,-0.783l0,-1.588c0,-0.923 -0.28,-1.342 -0.895,-1.426a1.041,1.041 0 0 0 0.867,-1.119l0,-0.923c0,-1.174 -0.587,-1.482 -1.9,-1.482l-1.93,0l0,7.3l1.509,-0.008zm-5.733,0l3.076,0l0,-1.332l-1.569,0l0,-1.818l1.51,0l0,-1.314l-1.51,0l0,-1.482l1.566,0l0,-1.314l-3.076,0l0.003,7.26zm-1.091,-5.117l0,-0.559c0,-1.286 -0.615,-1.762 -1.874,-1.762c-1.426,0 -1.93,0.559 -1.93,1.846c0,2.433 2.349,2.265 2.349,3.775c0,0.419 -0.112,0.615 -0.42,0.615s-0.419,-0.2 -0.419,-0.615l0,-0.5l-1.482,0l0,0.671c0,1.342 0.559,1.762 1.9,1.762c1.454,0 1.93,-0.475 1.93,-1.986c0,-2.377 -2.349,-2.377 -2.349,-3.663c0,-0.419 0.112,-0.615 0.419,-0.615s0.42,0.2 0.42,0.615l0,0.419l1.456,-0.003z" class="a"/>
  <path stroke="null" id="svg_2" fill="#ffffff" d="m71.393,8.165c-1.147,0 -1.706,2.041 -1.342,5.089c0.419,3.691 3.719,3.691 5.956,2.741l0,1.818a13.245,13.245 0 0 1 -3.468,0.475a5.745,5.745 0 0 1 -6.208,-6.012c0,-2.349 0.839,-5.593 5.285,-5.593a4.332,4.332 0 0 1 4.67,4.5l-3.555,0c0,-1.622 -0.336,-3.02 -1.342,-3.02m15.725,4.253l-6.432,0l0,0.056c0.224,4.558 3.607,4.446 6.012,3.5l0,1.818a12.256,12.256 0 0 1 -3.384,0.475c-5.481,0 -6.292,-4.055 -6.292,-6.152c0,-2.4 1.035,-5.481 5.229,-5.453c3.076,0 4.866,1.958 4.866,4.642l0.001,1.114zm-3.775,-1.594l0,-0.224c-0.056,-1.119 -0.28,-2.4 -1.23,-2.4c-0.923,0 -1.258,1.091 -1.37,2.573l0,0.084l2.6,0l0,-0.033zm-30.99,7.131l-6.015,0c-2.209,0 -3.8,-0.895 -3.8,-3.356a3.373,3.373 0 0 1 2.489,-3.412a8.823,8.823 0 0 1 2.013,-0.391c0.643,-0.056 1.175,-0.056 1.538,-0.056l0.056,0l0,-0.336c0,-2.573 -2.573,-2.293 -4,-1.874a7.144,7.144 0 0 0 -0.727,0.252l0,-1.678a13.359,13.359 0 0 1 3.524,-0.391c3.216,0 4.95,1.51 4.95,4.027l-0.028,7.215zm-3.715,-1.542l0,-4.278l-0.056,0a2.208,2.208 0 0 0 -2.265,2.349c0,1.734 0.839,1.9 1.65,1.93l0.671,-0.001z" class="b"/>
  <path id="svg_3" fill="#4b3c3c" d="m27.153,7.047l0,10.906l-3.719,0l0,-10.906l3.719,0z" class="a"/>
  <path id="svg_4" fill="#ffffff" d="m42.449,8.278a2.122,2.122 0 0 0 -2.237,2.4l0,7.243l-3.719,0l0,-7.355c0,-2.209 2.041,-3.887 5.2,-3.887l0.755,0l0.001,1.599zm-6.012,-5.817l0,1.566c-0.364,0 -0.727,0 -1.091,0.028a3.107,3.107 0 0 0 -1.035,0.224a1.748,1.748 0 0 0 -1.035,1.846l0,0.923l2.629,0l0,1.594l-2.629,0l0,9.284l-3.718,0l0,-10.935c0,-4.055 2.768,-4.53 6.152,-4.53l0.727,0zm28.244,15.492l-3.747,0l0,-6.544c0,-2.573 -0.979,-2.713 -2.349,-2.741l-0.252,0l0,9.284l-3.719,0l0,-10.933c0.308,0.028 1.314,0.056 4.67,0.056c5.4,0 5.425,2.517 5.425,4.53l-0.028,6.348z" class="b"/>
  <path id="svg_5" fill="#4b3c3c" d="m25.303,4.81a2.4,2.4 0 1 1 2.4,-2.4a2.4,2.4 0 0 1 -2.4,2.4" class="a"/>
  <path id="svg_6" fill="#ffffff" d="m25.303,25a2.4,2.4 0 1 1 2.4,-2.4a2.4,2.4 0 0 1 -2.4,2.4" class="b"/>
  <path id="svg_7" fill="#4b3c3c" d="m0,17.953l0,-15.492l3.747,0l0,4.586l1.175,0c2.6,0 3.887,1.007 4.53,2.181a6.564,6.564 0 0 1 0.643,3.16c0,1.734 -0.531,5.537 -4.838,5.537l-5.257,0l0,0.028zm6.32,-5.593c0,-2.377 -0.559,-3.831 -2.265,-3.831l-0.308,0l0,7.914l0.364,0c1.65,0 2.209,-1.594 2.209,-4.083m15.497,0.252a6.564,6.564 0 0 1 -0.643,3.16c-0.643,1.175 -1.93,2.181 -4.53,2.181l-1.18,0l0,4.586l-3.747,0l0,-15.492l5.257,0c4.306,0 4.838,3.831 4.838,5.565m-6.348,-4.083l0,7.918l0.308,0c1.706,0 2.265,-1.454 2.265,-3.831c0,-2.489 -0.559,-4.083 -2.209,-4.083l-0.364,-0.004z" class="a"/>
  <path id="svg_8" stroke-width="1.589px" stroke-miterlimit="10" stroke="#4b3c3c" fill="none" d="m97.567,1.063l0,22.903" class="c"/>
 </g>
</svg>